<?xml version="1.0" encoding="UTF-8"?>
<CustomTab xmlns="http://soap.sforce.com/2006/04/metadata">
    <frameHeight>600</frameHeight>
    <hasSidebar>true</hasSidebar>
    <label>Vrutal</label>
    <mobileReady>false</mobileReady>
    <motif>Custom55: Books</motif>
    <url>http://vrutal.com/humor</url>
    <urlEncodingKey>UTF-8</urlEncodingKey>
</CustomTab>
